[
    {
      "id": "1",
      "employee_name": "Tiger Nixon",
      "username": "System Architect",
      "email_address": "$320,800",
      "city": "2011/04/25",
      "employee_address": "Edinburgh",
      "phone": "5421"
    },
    {
      "id": "2",
      "employee_name": "Garrett Winters",
      "username": "Accountant",
      "email_address": "$170,750",
      "city": "2011/07/25",
      "employee_address": "Tokyo",
      "phone": "8422"
    },
    {
      "id": "3",
      "employee_name": "Ashton Cox",
      "username": "Junior Technical Author",
      "email_address": "$86,000",
      "city": "2009/01/12",
      "employee_address": "San Francisco",
      "phone": "1562"
    },
    {
      "id": "4",
      "employee_name": "Cedric Kelly",
      "username": "Senior Javascript Developer",
      "email_address": "$433,060",
      "city": "2012/03/29",
      "employee_address": "Edinburgh",
      "phone": "6224"
    },
    {
      "id": "5",
      "employee_name": "Airi Satou",
      "username": "Accountant",
      "email_address": "$162,700",
      "city": "2008/11/28",
      "employee_address": "Tokyo",
      "phone": "5407"
    },
    {
      "id": "6",
      "employee_name": "Brielle Williamson",
      "username": "Integration Specialist",
      "email_address": "$372,000",
      "city": "2012/12/02",
      "employee_address": "New York",
      "phone": "4804"
    },
    {
      "id": "7",
      "employee_name": "Herrod Chandler",
      "username": "Sales Assistant",
      "email_address": "$137,500",
      "city": "2012/08/06",
      "employee_address": "San Francisco",
      "phone": "9608"
    },
    {
      "id": "8",
      "employee_name": "Rhona Davidson",
      "username": "Integration Specialist",
      "email_address": "$327,900",
      "city": "2010/10/14",
      "employee_address": "Tokyo",
      "phone": "6200"
    },
    {
      "id": "9",
      "employee_name": "Colleen Hurst",
      "username": "Javascript Developer",
      "email_address": "$205,500",
      "city": "2009/09/15",
      "employee_address": "San Francisco",
      "phone": "2360"
    },
    {
      "id": "10",
      "employee_name": "Sonya Frost",
      "username": "Software Engineer",
      "email_address": "$103,600",
      "city": "2008/12/13",
      "employee_address": "Edinburgh",
      "phone": "1667"
    },
    {
      "id": "11",
      "employee_name": "Jena Gaines",
      "username": "employee_address Manager",
      "email_address": "$90,560",
      "city": "2008/12/19",
      "employee_address": "London",
      "phone": "3814"
    },
    {
      "id": "12",
      "employee_name": "Quinn Flynn",
      "username": "Support Lead",
      "email_address": "$342,000",
      "city": "2013/03/03",
      "employee_address": "Edinburgh",
      "phone": "9497"
    },
    {
      "id": "13",
      "employee_name": "Charde Marshall",
      "username": "Regional Director",
      "email_address": "$470,600",
      "city": "2008/10/16",
      "employee_address": "San Francisco",
      "phone": "6741"
    },
    {
      "id": "14",
      "employee_name": "Haley Kennedy",
      "username": "Senior Marketing Designer",
      "email_address": "$313,500",
      "city": "2012/12/18",
      "employee_address": "London",
      "phone": "3597"
    },
    {
      "id": "15",
      "employee_name": "Tatyana Fitzpatrick",
      "username": "Regional Director",
      "email_address": "$385,750",
      "city": "2010/03/17",
      "employee_address": "London",
      "phone": "1965"
    },
    {
      "id": "16",
      "employee_name": "Michael Silva",
      "username": "Marketing Designer",
      "email_address": "$198,500",
      "city": "2012/11/27",
      "employee_address": "London",
      "phone": "1581"
    },
    {
      "id": "17",
      "employee_name": "Paul Byrd",
      "username": "Chief Financial employee_addressr (CFO)",
      "email_address": "$725,000",
      "city": "2010/06/09",
      "employee_address": "New York",
      "phone": "3059"
    },
    {
      "id": "18",
      "employee_name": "Gloria Little",
      "username": "Systems Administrator",
      "email_address": "$237,500",
      "city": "2009/04/10",
      "employee_address": "New York",
      "phone": "1721"
    },
    {
      "id": "19",
      "employee_name": "Bradley Greer",
      "username": "Software Engineer",
      "email_address": "$132,000",
      "city": "2012/10/13",
      "employee_address": "London",
      "phone": "2558"
    },
    {
      "id": "20",
      "employee_name": "Dai Rios",
      "username": "Personnel Lead",
      "email_address": "$217,500",
      "city": "2012/09/26",
      "employee_address": "Edinburgh",
      "phone": "2290"
    },
    {
      "id": "21",
      "employee_name": "Jenette Caldwell",
      "username": "Development Lead",
      "email_address": "$345,000",
      "city": "2011/09/03",
      "employee_address": "New York",
      "phone": "1937"
    },
    {
      "id": "22",
      "employee_name": "Yuri Berry",
      "username": "Chief Marketing employee_addressr (CMO)",
      "email_address": "$675,000",
      "city": "2009/06/25",
      "employee_address": "New York",
      "phone": "6154"
    },
    {
      "id": "23",
      "employee_name": "Caesar Vance",
      "username": "Pre-Sales Support",
      "email_address": "$106,450",
      "city": "2011/12/12",
      "employee_address": "New York",
      "phone": "8330"
    },
    {
      "id": "24",
      "employee_name": "Doris Wilder",
      "username": "Sales Assistant",
      "email_address": "$85,600",
      "city": "2010/09/20",
      "employee_address": "Sydney",
      "phone": "3023"
    },
    {
      "id": "25",
      "employee_name": "Angelica Ramos",
      "username": "Chief Executive employee_addressr (CEO)",
      "email_address": "$1,200,000",
      "city": "2009/10/09",
      "employee_address": "London",
      "phone": "5797"
    },
    {
      "id": "26",
      "employee_name": "Gavin Joyce",
      "username": "Developer",
      "email_address": "$92,575",
      "city": "2010/12/22",
      "employee_address": "Edinburgh",
      "phone": "8822"
    },
    {
      "id": "27",
      "employee_name": "Jennifer Chang",
      "username": "Regional Director",
      "email_address": "$357,650",
      "city": "2010/11/14",
      "employee_address": "Singapore",
      "phone": "9239"
    },
    {
      "id": "28",
      "employee_name": "Brenden Wagner",
      "username": "Software Engineer",
      "email_address": "$206,850",
      "city": "2011/06/07",
      "employee_address": "San Francisco",
      "phone": "1314"
    },
    {
      "id": "29",
      "employee_name": "Fiona Green",
      "username": "Chief Operating employee_addressr (COO)",
      "email_address": "$850,000",
      "city": "2010/03/11",
      "employee_address": "San Francisco",
      "phone": "2947"
    },
    {
      "id": "30",
      "employee_name": "Shou Itou",
      "username": "Regional Marketing",
      "email_address": "$163,000",
      "city": "2011/08/14",
      "employee_address": "Tokyo",
      "phone": "8899"
    },
    {
      "id": "31",
      "employee_name": "Michelle House",
      "username": "Integration Specialist",
      "email_address": "$95,400",
      "city": "2011/06/02",
      "employee_address": "Sydney",
      "phone": "2769"
    },
    {
      "id": "32",
      "employee_name": "Suki Burks",
      "username": "Developer",
      "email_address": "$114,500",
      "city": "2009/10/22",
      "employee_address": "London",
      "phone": "6832"
    },
    {
      "id": "33",
      "employee_name": "Prescott Bartlett",
      "username": "Technical Author",
      "email_address": "$145,000",
      "city": "2011/05/07",
      "employee_address": "London",
      "phone": "3606"
    },
    {
      "id": "34",
      "employee_name": "Gavin Cortez",
      "username": "Team Leader",
      "email_address": "$235,500",
      "city": "2008/10/26",
      "employee_address": "San Francisco",
      "phone": "2860"
    },
    {
      "id": "35",
      "employee_name": "Martena Mccray",
      "username": "Post-Sales support",
      "email_address": "$324,050",
      "city": "2011/03/09",
      "employee_address": "Edinburgh",
      "phone": "8240"
    },
    {
      "id": "36",
      "employee_name": "Unity Butler",
      "username": "Marketing Designer",
      "email_address": "$85,675",
      "city": "2009/12/09",
      "employee_address": "San Francisco",
      "phone": "5384"
    },
    {
      "id": "37",
      "employee_name": "Howard Hatfield",
      "username": "employee_address Manager",
      "email_address": "$164,500",
      "city": "2008/12/16",
      "employee_address": "San Francisco",
      "phone": "7031"
    },
    {
      "id": "38",
      "employee_name": "Hope Fuentes",
      "username": "Secretary",
      "email_address": "$109,850",
      "city": "2010/02/12",
      "employee_address": "San Francisco",
      "phone": "6318"
    },
    {
      "id": "39",
      "employee_name": "Vivian Harrell",
      "username": "Financial Controller",
      "email_address": "$452,500",
      "city": "2009/02/14",
      "employee_address": "San Francisco",
      "phone": "9422"
    },
    {
      "id": "40",
      "employee_name": "Timothy Mooney",
      "username": "employee_address Manager",
      "email_address": "$136,200",
      "city": "2008/12/11",
      "employee_address": "London",
      "phone": "7580"
    },
    {
      "id": "41",
      "employee_name": "Jackson Bradshaw",
      "username": "Director",
      "email_address": "$645,750",
      "city": "2008/09/26",
      "employee_address": "New York",
      "phone": "1042"
    },
    {
      "id": "42",
      "employee_name": "Olivia Liang",
      "username": "Support Engineer",
      "email_address": "$234,500",
      "city": "2011/02/03",
      "employee_address": "Singapore",
      "phone": "2120"
    },
    {
      "id": "43",
      "employee_name": "Bruno Nash",
      "username": "Software Engineer",
      "email_address": "$163,500",
      "city": "2011/05/03",
      "employee_address": "London",
      "phone": "6222"
    },
    {
      "id": "44",
      "employee_name": "Sakura Yamamoto",
      "username": "Support Engineer",
      "email_address": "$139,575",
      "city": "2009/08/19",
      "employee_address": "Tokyo",
      "phone": "9383"
    },
    {
      "id": "45",
      "employee_name": "Thor Walton",
      "username": "Developer",
      "email_address": "$98,540",
      "city": "2013/08/11",
      "employee_address": "New York",
      "phone": "8327"
    },
    {
      "id": "46",
      "employee_name": "Finn Camacho",
      "username": "Support Engineer",
      "email_address": "$87,500",
      "city": "2009/07/07",
      "employee_address": "San Francisco",
      "phone": "2927"
    },
    {
      "id": "47",
      "employee_name": "Serge Baldwin",
      "username": "Data Coordinator",
      "email_address": "$138,575",
      "city": "2012/04/09",
      "employee_address": "Singapore",
      "phone": "8352"
    },
    {
      "id": "48",
      "employee_name": "Zenaida Frank",
      "username": "Software Engineer",
      "email_address": "$125,250",
      "city": "2010/01/04",
      "employee_address": "New York",
      "phone": "7439"
    },
    {
      "id": "49",
      "employee_name": "Zorita Serrano",
      "username": "Software Engineer",
      "email_address": "$115,000",
      "city": "2012/06/01",
      "employee_address": "San Francisco",
      "phone": "4389"
    },
    {
      "id": "50",
      "employee_name": "Jennifer Acosta",
      "username": "Junior Javascript Developer",
      "email_address": "$75,650",
      "city": "2013/02/01",
      "employee_address": "Edinburgh",
      "phone": "3431"
    },
    {
      "id": "51",
      "employee_name": "Cara Stevens",
      "username": "Sales Assistant",
      "email_address": "$145,600",
      "city": "2011/12/06",
      "employee_address": "New York",
      "phone": "3990"
    },
    {
      "id": "52",
      "employee_name": "Hermione Butler",
      "username": "Regional Director",
      "email_address": "$356,250",
      "city": "2011/03/21",
      "employee_address": "London",
      "phone": "1016"
    },
    {
      "id": "53",
      "employee_name": "Lael Greer",
      "username": "Systems Administrator",
      "email_address": "$103,500",
      "city": "2009/02/27",
      "employee_address": "London",
      "phone": "6733"
    },
    {
      "id": "54",
      "employee_name": "Jonas Alexander",
      "username": "Developer",
      "email_address": "$86,500",
      "city": "2010/07/14",
      "employee_address": "San Francisco",
      "phone": "8196"
    },
    {
      "id": "55",
      "employee_name": "Shad Decker",
      "username": "Regional Director",
      "email_address": "$183,000",
      "city": "2008/11/13",
      "employee_address": "Edinburgh",
      "phone": "6373"
    },
    {
      "id": "56",
      "employee_name": "Michael Bruce",
      "username": "Javascript Developer",
      "email_address": "$183,000",
      "city": "2011/06/27",
      "employee_address": "Singapore",
      "phone": "5384"
    },
    {
      "id": "57",
      "employee_name": "Donna Snider",
      "username": "Customer Support",
      "email_address": "$112,000",
      "city": "2011/01/25",
      "employee_address": "New York",
      "phone": "4226"
    }
  ]